%YAML 1.1
%TAG !u! tag:unity3d.com,2011:
--- !u!1001 &100100000
Prefab:
  m_ObjectHideFlags: 1
  serializedVersion: 2
  m_Modification:
    m_TransformParent: {fileID: 0}
    m_Modifications: []
    m_RemovedComponents: []
  m_ParentPrefab: {fileID: 0}
  m_RootGameObject: {fileID: 1275937345944424}
  m_IsPrefabParent: 1
--- !u!1 &1275937345944424
GameObject:
  m_ObjectHideFlags: 0
  m_PrefabParentObject: {fileID: 0}
  m_PrefabInternal: {fileID: 100100000}
  serializedVersion: 5
  m_Component:
  - component: {fileID: 4778030977362426}
  - component: {fileID: 212803480117072856}
  - component: {fileID: 114109444406242846}
  - component: {fileID: 50498419195873840}
  - component: {fileID: 60237989126730446}
  m_Layer: 0
  m_Name: asteroid1
  m_TagString: Asteroid
  m_Icon: {fileID: 0}
  m_NavMeshLayer: 0
  m_StaticEditorFlags: 0
  m_IsActive: 1
--- !u!4 &4778030977362426
Transform:
  m_ObjectHideFlags: 1
  m_PrefabParentObject: {fileID: 0}
  m_PrefabInternal: {fileID: 100100000}
  m_GameObject: {fileID: 1275937345944424}
  m_LocalRotation: {x: 0, y: 0, z: 0, w: 1}
  m_LocalPosition: {x: -9.671437, y: -1.9554851, z: 0}
  m_LocalScale: {x: 0.5, y: 0.5, z: 0.5}
  m_Children: []
  m_Father: {fileID: 0}
  m_RootOrder: 0
  m_LocalEulerAnglesHint: {x: 0, y: 0, z: 0}
--- !u!50 &50498419195873840
Rigidbody2D:
  serializedVersion: 4
  m_ObjectHideFlags: 1
  m_PrefabParentObject: {fileID: 0}
  m_PrefabInternal: {fileID: 100100000}
  m_GameObject: {fileID: 1275937345944424}
  m_BodyType: 0
  m_Simulated: 1
  m_UseFullKinematicContacts: 0
  m_UseAutoMass: 0
  m_Mass: 1
  m_LinearDrag: 0
  m_AngularDrag: 0.05
  m_GravityScale: 0
  m_Material: {fileID: 0}
  m_Interpolate: 0
  m_SleepingMode: 1
  m_CollisionDetection: 0
  m_Constraints: 0
--- !u!60 &60237989126730446
PolygonCollider2D:
  m_ObjectHideFlags: 1
  m_PrefabParentObject: {fileID: 0}
  m_PrefabInternal: {fileID: 100100000}
  m_GameObject: {fileID: 1275937345944424}
  m_Enabled: 1
  m_Density: 1
  m_Material: {fileID: 0}
  m_IsTrigger: 0
  m_UsedByEffector: 0
  m_UsedByComposite: 0
  m_Offset: {x: 0, y: 0}
  m_SpriteTilingProperty:
    border: {x: 0, y: 0, z: 0, w: 0}
    pivot: {x: 0.5, y: 0.5}
    oldSize: {x: 3.31, y: 3.31}
    newSize: {x: 3.31, y: 3.31}
    adaptiveTilingThreshold: 0.5
    drawMode: 0
    adaptiveTiling: 0
  m_AutoTiling: 0
  m_Points:
    m_Paths:
    - - {x: 0.675, y: -0.66499996}
      - {x: 0.805, y: -0.59499997}
      - {x: 0.98499995, y: -0.475}
      - {x: 1.285, y: -0.295}
      - {x: 1.3349999, y: -0.255}
      - {x: 1.415, y: -0.13499999}
      - {x: 1.655, y: 0.21499999}
      - {x: 1.655, y: 0.385}
      - {x: 1.605, y: 0.445}
      - {x: 1.1949999, y: 0.775}
      - {x: 0.79499996, y: 1.095}
      - {x: 0.285, y: 1.4449999}
      - {x: 0.16499999, y: 1.545}
      - {x: 0.095, y: 1.655}
      - {x: -0.125, y: 1.655}
      - {x: -0.275, y: 1.5649999}
      - {x: -0.515, y: 1.425}
      - {x: -0.615, y: 1.345}
      - {x: -0.775, y: 1.045}
      - {x: -0.865, y: 0.875}
      - {x: -0.955, y: 0.905}
      - {x: -1.115, y: 0.91499996}
      - {x: -1.175, y: 0.835}
      - {x: -1.305, y: 0.635}
      - {x: -1.405, y: 0.475}
      - {x: -1.645, y: 0.095}
      - {x: -1.655, y: 0.074999996}
      - {x: -1.655, y: -0.465}
      - {x: -1.5849999, y: -0.695}
      - {x: -1.545, y: -0.79499996}
      - {x: -1.485, y: -0.835}
      - {x: -1.395, y: -0.84499997}
      - {x: -1.165, y: -0.895}
      - {x: -0.84499997, y: -0.965}
      - {x: -0.755, y: -1.005}
      - {x: -0.78499997, y: -1.0749999}
      - {x: -0.79499996, y: -1.255}
      - {x: -0.655, y: -1.375}
      - {x: -0.39499998, y: -1.555}
      - {x: -0.285, y: -1.645}
      - {x: -0.235, y: -1.655}
      - {x: 0.705, y: -1.655}
      - {x: 0.705, y: -1.515}
      - {x: 0.695, y: -1.305}
      - {x: 0.675, y: -0.85499996}
    - - {x: -0.044999998, y: -1.4549999}
      - {x: -0.21499999, y: -1.365}
      - {x: -0.305, y: -1.285}
      - {x: -0.525, y: -1.125}
      - {x: -0.465, y: -1.025}
      - {x: -0.465, y: -0.835}
      - {x: -0.49499997, y: -0.805}
      - {x: -0.565, y: -0.78499997}
      - {x: -0.715, y: -0.755}
      - {x: -0.79499996, y: -0.72499996}
      - {x: -1.115, y: -0.66499996}
      - {x: -1.295, y: -0.625}
      - {x: -1.345, y: -0.60499996}
      - {x: -1.495, y: -0.155}
      - {x: -1.415, y: -0.055}
      - {x: -1.355, y: 0.055}
      - {x: -1.225, y: 0.255}
      - {x: -1.125, y: 0.415}
      - {x: -1.015, y: 0.59499997}
      - {x: -0.965, y: 0.625}
      - {x: -0.895, y: 0.59499997}
      - {x: -0.745, y: 0.59499997}
      - {x: -0.715, y: 0.625}
      - {x: -0.645, y: 0.73499995}
      - {x: -0.42499998, y: 1.135}
      - {x: -0.36499998, y: 1.2049999}
      - {x: -0.074999996, y: 1.385}
      - {x: 0.095, y: 1.245}
      - {x: 0.225, y: 1.165}
      - {x: 0.555, y: 0.935}
      - {x: 0.72499996, y: 0.805}
      - {x: 0.85499996, y: 0.705}
      - {x: 0.97499996, y: 0.60499996}
      - {x: 1.105, y: 0.505}
      - {x: 1.225, y: 0.405}
      - {x: 1.395, y: 0.285}
      - {x: 1.3149999, y: 0.185}
      - {x: 1.145, y: -0.055}
      - {x: 1.0749999, y: -0.125}
      - {x: 0.905, y: -0.21499999}
      - {x: 0.525, y: -0.445}
      - {x: 0.45499998, y: -0.505}
      - {x: 0.45499998, y: -0.765}
      - {x: 0.465, y: -0.97499996}
      - {x: 0.475, y: -1.1949999}
      - {x: 0.48499998, y: -1.435}
      - {x: 0.49499997, y: -1.555}
      - {x: 0.445, y: -1.545}
--- !u!114 &114109444406242846
MonoBehaviour:
  m_ObjectHideFlags: 1
  m_PrefabParentObject: {fileID: 0}
  m_PrefabInternal: {fileID: 100100000}
  m_GameObject: {fileID: 1275937345944424}
  m_Enabled: 1
  m_EditorHideFlags: 0
  m_Script: {fileID: 11500000, guid: 820862603ad64b54c811182104ef54e6, type: 3}
  m_Name: 
  m_EditorClassIdentifier: 
--- !u!212 &212803480117072856
SpriteRenderer:
  m_ObjectHideFlags: 1
  m_PrefabParentObject: {fileID: 0}
  m_PrefabInternal: {fileID: 100100000}
  m_GameObject: {fileID: 1275937345944424}
  m_Enabled: 1
  m_CastShadows: 0
  m_ReceiveShadows: 0
  m_DynamicOccludee: 1
  m_MotionVectors: 1
  m_LightProbeUsage: 1
  m_ReflectionProbeUsage: 1
  m_Materials:
  - {fileID: 10754, guid: 0000000000000000f000000000000000, type: 0}
  m_StaticBatchInfo:
    firstSubMesh: 0
    subMeshCount: 0
  m_StaticBatchRoot: {fileID: 0}
  m_ProbeAnchor: {fileID: 0}
  m_LightProbeVolumeOverride: {fileID: 0}
  m_ScaleInLightmap: 1
  m_PreserveUVs: 0
  m_IgnoreNormalsForChartDetection: 0
  m_ImportantGI: 0
  m_StitchLightmapSeams: 0
  m_SelectedEditorRenderState: 0
  m_MinimumChartSize: 4
  m_AutoUVMaxDistance: 0.5
  m_AutoUVMaxAngle: 89
  m_LightmapParameters: {fileID: 0}
  m_SortingLayerID: 0
  m_SortingLayer: 0
  m_SortingOrder: 0
  m_Sprite: {fileID: 21300000, guid: d5af4603b0499444a9c1511bc009a04f, type: 3}
  m_Color: {r: 1, g: 1, b: 1, a: 1}
  m_FlipX: 0
  m_FlipY: 0
  m_DrawMode: 0
  m_Size: {x: 3.31, y: 3.31}
  m_AdaptiveModeThreshold: 0.5
  m_SpriteTileMode: 0
  m_WasSpriteAssigned: 1
  m_MaskInteraction: 0
